{
  "name": "open-source-metadata-harvester",
  "version": "0.0.0",
  "dependencies": {
    "abbrev": {
      "version": "1.0.7",
      "from": "abbrev@>=1.0.0 <2.0.0",
      "resolved": "https://registry.npmjs.org/abbrev/-/abbrev-1.0.7.tgz"
    },
    "acorn": {
      "version": "3.0.4",
      "from": "acorn@>=3.0.4 <4.0.0",
      "resolved": "https://registry.npmjs.org/acorn/-/acorn-3.0.4.tgz"
    },
    "acorn-jsx": {
      "version": "2.0.1",
      "from": "acorn-jsx@>=2.0.1 <3.0.0",
      "resolved": "https://registry.npmjs.org/acorn-jsx/-/acorn-jsx-2.0.1.tgz",
      "dependencies": {
        "acorn": {
          "version": "2.7.0",
          "from": "acorn@>=2.0.1 <3.0.0",
          "resolved": "https://registry.npmjs.org/acorn/-/acorn-2.7.0.tgz"
        }
      }
    },
    "align-text": {
      "version": "0.1.4",
      "from": "align-text@>=0.1.3 <0.2.0",
      "resolved": "https://registry.npmjs.org/align-text/-/align-text-0.1.4.tgz"
    },
    "amdefine": {
      "version": "1.0.0",
      "from": "amdefine@>=0.0.4",
      "resolved": "https://registry.npmjs.org/amdefine/-/amdefine-1.0.0.tgz"
    },
    "ammo": {
      "version": "1.0.1",
      "from": "ammo@>=1.0.0 <2.0.0",
      "resolved": "https://registry.npmjs.org/ammo/-/ammo-1.0.1.tgz",
      "dependencies": {
        "hoek": {
          "version": "2.16.3",
          "from": "hoek@>=2.0.0 <3.0.0",
          "resolved": "https://registry.npmjs.org/hoek/-/hoek-2.16.3.tgz"
        }
      }
    },
    "ansi-escapes": {
      "version": "1.3.0",
      "from": "ansi-escapes@>=1.1.0 <2.0.0",
      "resolved": "https://registry.npmjs.org/ansi-escapes/-/ansi-escapes-1.3.0.tgz"
    },
    "ansi-regex": {
      "version": "2.0.0",
      "from": "ansi-regex@>=2.0.0 <3.0.0",
      "resolved": "https://registry.npmjs.org/ansi-regex/-/ansi-regex-2.0.0.tgz"
    },
    "ansi-styles": {
      "version": "2.2.1",
      "from": "ansi-styles@>=2.2.1 <3.0.0",
      "resolved": "https://registry.npmjs.org/ansi-styles/-/ansi-styles-2.2.1.tgz"
    },
    "anymatch": {
      "version": "1.3.0",
      "from": "anymatch@>=1.3.0 <2.0.0",
      "resolved": "https://registry.npmjs.org/anymatch/-/anymatch-1.3.0.tgz"
    },
    "argparse": {
      "version": "1.0.7",
      "from": "argparse@>=1.0.2 <2.0.0",
      "resolved": "https://registry.npmjs.org/argparse/-/argparse-1.0.7.tgz"
    },
    "arr-diff": {
      "version": "2.0.0",
      "from": "arr-diff@>=2.0.0 <3.0.0",
      "resolved": "https://registry.npmjs.org/arr-diff/-/arr-diff-2.0.0.tgz"
    },
    "arr-flatten": {
      "version": "1.0.1",
      "from": "arr-flatten@>=1.0.1 <2.0.0",
      "resolved": "https://registry.npmjs.org/arr-flatten/-/arr-flatten-1.0.1.tgz"
    },
    "array-union": {
      "version": "1.0.1",
      "from": "array-union@>=1.0.1 <2.0.0",
      "resolved": "https://registry.npmjs.org/array-union/-/array-union-1.0.1.tgz"
    },
    "array-uniq": {
      "version": "1.0.2",
      "from": "array-uniq@>=1.0.1 <2.0.0",
      "resolved": "https://registry.npmjs.org/array-uniq/-/array-uniq-1.0.2.tgz"
    },
    "array-unique": {
      "version": "0.2.1",
      "from": "array-unique@>=0.2.1 <0.3.0",
      "resolved": "https://registry.npmjs.org/array-unique/-/array-unique-0.2.1.tgz"
    },
    "arrify": {
      "version": "1.0.1",
      "from": "arrify@>=1.0.0 <2.0.0",
      "resolved": "https://registry.npmjs.org/arrify/-/arrify-1.0.1.tgz"
    },
    "assertion-error": {
      "version": "1.0.1",
      "from": "assertion-error@>=1.0.1 <2.0.0",
      "resolved": "https://registry.npmjs.org/assertion-error/-/assertion-error-1.0.1.tgz"
    },
    "ast-types": {
      "version": "0.8.16",
      "from": "ast-types@0.8.16",
      "resolved": "https://registry.npmjs.org/ast-types/-/ast-types-0.8.16.tgz"
    },
    "async": {
      "version": "1.5.2",
      "from": "async@>=1.4.0 <2.0.0",
      "resolved": "https://registry.npmjs.org/async/-/async-1.5.2.tgz"
    },
    "async-each": {
      "version": "1.0.0",
      "from": "async-each@>=1.0.0 <2.0.0",
      "resolved": "https://registry.npmjs.org/async-each/-/async-each-1.0.0.tgz"
    },
    "babel-runtime": {
      "version": "5.8.38",
      "from": "babel-runtime@>=5.2.17 <6.0.0",
      "resolved": "https://registry.npmjs.org/babel-runtime/-/babel-runtime-5.8.38.tgz"
    },
    "balanced-match": {
      "version": "0.3.0",
      "from": "balanced-match@>=0.3.0 <0.4.0",
      "resolved": "https://registry.npmjs.org/balanced-match/-/balanced-match-0.3.0.tgz"
    },
    "binary-extensions": {
      "version": "1.4.0",
      "from": "binary-extensions@>=1.0.0 <2.0.0",
      "resolved": "https://registry.npmjs.org/binary-extensions/-/binary-extensions-1.4.0.tgz"
    },
    "bluebird": {
      "version": "3.3.5",
      "from": "bluebird@>=3.1.1 <4.0.0",
      "resolved": "https://registry.npmjs.org/bluebird/-/bluebird-3.3.5.tgz"
    },
    "boom": {
      "version": "2.10.1",
      "from": "boom@>=2.0.0 <3.0.0",
      "resolved": "https://registry.npmjs.org/boom/-/boom-2.10.1.tgz",
      "dependencies": {
        "hoek": {
          "version": "2.16.3",
          "from": "hoek@>=2.0.0 <3.0.0",
          "resolved": "https://registry.npmjs.org/hoek/-/hoek-2.16.3.tgz"
        }
      }
    },
    "bossy": {
      "version": "1.0.3",
      "from": "bossy@>=1.0.0 <2.0.0",
      "resolved": "https://registry.npmjs.org/bossy/-/bossy-1.0.3.tgz",
      "dependencies": {
        "hoek": {
          "version": "2.16.3",
          "from": "hoek@>=2.0.0 <3.0.0",
          "resolved": "https://registry.npmjs.org/hoek/-/hoek-2.16.3.tgz"
        }
      }
    },
    "brace-expansion": {
      "version": "1.1.3",
      "from": "brace-expansion@>=1.0.0 <2.0.0",
      "resolved": "https://registry.npmjs.org/brace-expansion/-/brace-expansion-1.1.3.tgz"
    },
    "braces": {
      "version": "1.8.3",
      "from": "braces@>=1.8.2 <2.0.0",
      "resolved": "https://registry.npmjs.org/braces/-/braces-1.8.3.tgz"
    },
    "call-me-maybe": {
      "version": "1.0.1",
      "from": "call-me-maybe@>=1.0.1 <2.0.0",
      "resolved": "https://registry.npmjs.org/call-me-maybe/-/call-me-maybe-1.0.1.tgz"
    },
    "caller-path": {
      "version": "0.1.0",
      "from": "caller-path@>=0.1.0 <0.2.0",
      "resolved": "https://registry.npmjs.org/caller-path/-/caller-path-0.1.0.tgz"
    },
    "callsites": {
      "version": "0.2.0",
      "from": "callsites@>=0.2.0 <0.3.0",
      "resolved": "https://registry.npmjs.org/callsites/-/callsites-0.2.0.tgz"
    },
    "camelcase": {
      "version": "1.2.1",
      "from": "camelcase@>=1.0.2 <2.0.0",
      "resolved": "https://registry.npmjs.org/camelcase/-/camelcase-1.2.1.tgz"
    },
    "center-align": {
      "version": "0.1.3",
      "from": "center-align@>=0.1.1 <0.2.0",
      "resolved": "https://registry.npmjs.org/center-align/-/center-align-0.1.3.tgz"
    },
    "chai": {
      "version": "3.5.0",
      "from": "chai@>=1.9.2 <4.0.0",
      "resolved": "https://registry.npmjs.org/chai/-/chai-3.5.0.tgz"
    },
    "chalk": {
      "version": "1.1.3",
      "from": "chalk@>=1.1.3 <2.0.0",
      "resolved": "https://registry.npmjs.org/chalk/-/chalk-1.1.3.tgz"
    },
    "chokidar": {
      "version": "1.4.3",
      "from": "chokidar@>=1.2.0 <2.0.0",
      "resolved": "https://registry.npmjs.org/chokidar/-/chokidar-1.4.3.tgz"
    },
    "cli-cursor": {
      "version": "1.0.2",
      "from": "cli-cursor@>=1.0.1 <2.0.0",
      "resolved": "https://registry.npmjs.org/cli-cursor/-/cli-cursor-1.0.2.tgz"
    },
    "cli-width": {
      "version": "2.1.0",
      "from": "cli-width@>=2.0.0 <3.0.0",
      "resolved": "https://registry.npmjs.org/cli-width/-/cli-width-2.1.0.tgz"
    },
    "cliui": {
      "version": "2.1.0",
      "from": "cliui@>=2.1.0 <3.0.0",
      "resolved": "https://registry.npmjs.org/cliui/-/cliui-2.1.0.tgz",
      "dependencies": {
        "wordwrap": {
          "version": "0.0.2",
          "from": "wordwrap@0.0.2",
          "resolved": "https://registry.npmjs.org/wordwrap/-/wordwrap-0.0.2.tgz"
        }
      }
    },
    "code-point-at": {
      "version": "1.0.0",
      "from": "code-point-at@>=1.0.0 <2.0.0",
      "resolved": "https://registry.npmjs.org/code-point-at/-/code-point-at-1.0.0.tgz"
    },
    "concat-map": {
      "version": "0.0.1",
      "from": "concat-map@0.0.1",
      "resolved": "https://registry.npmjs.org/concat-map/-/concat-map-0.0.1.tgz"
    },
    "concat-stream": {
      "version": "1.5.1",
      "from": "concat-stream@>=1.4.6 <2.0.0",
      "resolved": "https://registry.npmjs.org/concat-stream/-/concat-stream-1.5.1.tgz",
      "dependencies": {
        "isarray": {
          "version": "1.0.0",
          "from": "isarray@>=1.0.0 <1.1.0",
          "resolved": "https://registry.npmjs.org/isarray/-/isarray-1.0.0.tgz"
        },
        "readable-stream": {
          "version": "2.0.6",
          "from": "readable-stream@>=2.0.0 <2.1.0",
          "resolved": "https://registry.npmjs.org/readable-stream/-/readable-stream-2.0.6.tgz"
        }
      }
    },
    "configstore": {
      "version": "1.4.0",
      "from": "configstore@>=1.0.0 <2.0.0",
      "resolved": "https://registry.npmjs.org/configstore/-/configstore-1.4.0.tgz"
    },
    "core-js": {
      "version": "1.2.6",
      "from": "core-js@>=1.0.0 <2.0.0",
      "resolved": "https://registry.npmjs.org/core-js/-/core-js-1.2.6.tgz"
    },
    "core-util-is": {
      "version": "1.0.2",
      "from": "core-util-is@>=1.0.0 <1.1.0",
      "resolved": "https://registry.npmjs.org/core-util-is/-/core-util-is-1.0.2.tgz"
    },
    "d": {
      "version": "0.1.1",
      "from": "d@>=0.1.1 <0.2.0",
      "resolved": "https://registry.npmjs.org/d/-/d-0.1.1.tgz"
    },
    "debug": {
      "version": "2.2.0",
      "from": "debug@>=2.2.0 <3.0.0",
      "resolved": "https://registry.npmjs.org/debug/-/debug-2.2.0.tgz"
    },
    "decamelize": {
      "version": "1.2.0",
      "from": "decamelize@>=1.0.0 <2.0.0",
      "resolved": "https://registry.npmjs.org/decamelize/-/decamelize-1.2.0.tgz"
    },
    "deep-eql": {
      "version": "0.1.3",
      "from": "deep-eql@>=0.1.3 <0.2.0",
      "resolved": "https://registry.npmjs.org/deep-eql/-/deep-eql-0.1.3.tgz",
      "dependencies": {
        "type-detect": {
          "version": "0.1.1",
          "from": "type-detect@0.1.1",
          "resolved": "https://registry.npmjs.org/type-detect/-/type-detect-0.1.1.tgz"
        }
      }
    },
    "deep-equal": {
      "version": "1.0.1",
      "from": "deep-equal@>=1.0.0 <2.0.0",
      "resolved": "https://registry.npmjs.org/deep-equal/-/deep-equal-1.0.1.tgz"
    },
    "deep-extend": {
      "version": "0.4.1",
      "from": "deep-extend@>=0.4.0 <0.5.0",
      "resolved": "https://registry.npmjs.org/deep-extend/-/deep-extend-0.4.1.tgz"
    },
    "deep-is": {
      "version": "0.1.3",
      "from": "deep-is@>=0.1.3 <0.2.0",
      "resolved": "https://registry.npmjs.org/deep-is/-/deep-is-0.1.3.tgz"
    },
    "del": {
      "version": "2.2.0",
      "from": "del@>=2.0.2 <3.0.0",
      "resolved": "https://registry.npmjs.org/del/-/del-2.2.0.tgz"
    },
    "diff": {
      "version": "2.2.2",
      "from": "diff@>=2.0.0 <3.0.0",
      "resolved": "https://registry.npmjs.org/diff/-/diff-2.2.2.tgz"
    },
    "doctrine": {
      "version": "1.2.1",
      "from": "doctrine@>=1.2.1 <2.0.0",
      "resolved": "https://registry.npmjs.org/doctrine/-/doctrine-1.2.1.tgz",
      "dependencies": {
        "esutils": {
          "version": "1.1.6",
          "from": "esutils@>=1.1.6 <2.0.0",
          "resolved": "https://registry.npmjs.org/esutils/-/esutils-1.1.6.tgz"
        },
        "isarray": {
          "version": "1.0.0",
          "from": "isarray@>=1.0.0 <2.0.0",
          "resolved": "https://registry.npmjs.org/isarray/-/isarray-1.0.0.tgz"
        }
      }
    },
    "dotenv": {
      "version": "2.0.0",
      "from": "dotenv@>=2.0.0 <3.0.0",
      "resolved": "https://registry.npmjs.org/dotenv/-/dotenv-2.0.0.tgz"
    },
    "duplexer": {
      "version": "0.1.1",
      "from": "duplexer@>=0.1.1 <0.2.0",
      "resolved": "https://registry.npmjs.org/duplexer/-/duplexer-0.1.1.tgz"
    },
    "duplexify": {
      "version": "3.4.3",
      "from": "duplexify@>=3.2.0 <4.0.0",
      "resolved": "https://registry.npmjs.org/duplexify/-/duplexify-3.4.3.tgz",
      "dependencies": {
        "isarray": {
          "version": "1.0.0",
          "from": "isarray@>=1.0.0 <1.1.0",
          "resolved": "https://registry.npmjs.org/isarray/-/isarray-1.0.0.tgz"
        },
        "readable-stream": {
          "version": "2.1.0",
          "from": "readable-stream@>=2.0.0 <3.0.0",
          "resolved": "https://registry.npmjs.org/readable-stream/-/readable-stream-2.1.0.tgz"
        }
      }
    },
    "end-of-stream": {
      "version": "1.0.0",
      "from": "end-of-stream@1.0.0",
      "resolved": "https://registry.npmjs.org/end-of-stream/-/end-of-stream-1.0.0.tgz"
    },
    "es5-ext": {
      "version": "0.10.11",
      "from": "es5-ext@>=0.10.8 <0.11.0",
      "resolved": "https://registry.npmjs.org/es5-ext/-/es5-ext-0.10.11.tgz"
    },
    "es6-iterator": {
      "version": "2.0.0",
      "from": "es6-iterator@>=2.0.0 <3.0.0",
      "resolved": "https://registry.npmjs.org/es6-iterator/-/es6-iterator-2.0.0.tgz"
    },
    "es6-map": {
      "version": "0.1.3",
      "from": "es6-map@>=0.1.3 <0.2.0",
      "resolved": "https://registry.npmjs.org/es6-map/-/es6-map-0.1.3.tgz"
    },
    "es6-promise": {
      "version": "3.1.2",
      "from": "es6-promise@>=3.0.2 <4.0.0",
      "resolved": "https://registry.npmjs.org/es6-promise/-/es6-promise-3.1.2.tgz"
    },
    "es6-set": {
      "version": "0.1.4",
      "from": "es6-set@>=0.1.3 <0.2.0",
      "resolved": "https://registry.npmjs.org/es6-set/-/es6-set-0.1.4.tgz"
    },
    "es6-symbol": {
      "version": "3.0.2",
      "from": "es6-symbol@>=3.0.1 <3.1.0",
      "resolved": "https://registry.npmjs.org/es6-symbol/-/es6-symbol-3.0.2.tgz"
    },
    "es6-weak-map": {
      "version": "2.0.1",
      "from": "es6-weak-map@>=2.0.1 <3.0.0",
      "resolved": "https://registry.npmjs.org/es6-weak-map/-/es6-weak-map-2.0.1.tgz"
    },
    "escape-string-regexp": {
      "version": "1.0.5",
      "from": "escape-string-regexp@>=1.0.2 <2.0.0",
      "resolved": "https://registry.npmjs.org/escape-string-regexp/-/escape-string-regexp-1.0.5.tgz"
    },
    "escope": {
      "version": "3.6.0",
      "from": "escope@>=3.6.0 <4.0.0",
      "resolved": "https://registry.npmjs.org/escope/-/escope-3.6.0.tgz"
    },
    "eslint-config-hapi": {
      "version": "9.1.0",
      "from": "eslint-config-hapi@>=9.0.0 <10.0.0",
      "resolved": "https://registry.npmjs.org/eslint-config-hapi/-/eslint-config-hapi-9.1.0.tgz"
    },
    "eslint-plugin-hapi": {
      "version": "4.0.0",
      "from": "eslint-plugin-hapi@>=4.0.0 <5.0.0",
      "resolved": "https://registry.npmjs.org/eslint-plugin-hapi/-/eslint-plugin-hapi-4.0.0.tgz"
    },
    "esmangle-evaluator": {
      "version": "1.0.0",
      "from": "esmangle-evaluator@>=1.0.0 <2.0.0",
      "resolved": "https://registry.npmjs.org/esmangle-evaluator/-/esmangle-evaluator-1.0.0.tgz"
    },
    "espree": {
      "version": "3.1.3",
      "from": "espree@3.1.3",
      "resolved": "https://registry.npmjs.org/espree/-/espree-3.1.3.tgz"
    },
    "esprima": {
      "version": "2.7.2",
      "from": "esprima@>=2.6.0 <3.0.0",
      "resolved": "https://registry.npmjs.org/esprima/-/esprima-2.7.2.tgz"
    },
    "esrecurse": {
      "version": "4.1.0",
      "from": "esrecurse@>=4.1.0 <5.0.0",
      "resolved": "https://registry.npmjs.org/esrecurse/-/esrecurse-4.1.0.tgz",
      "dependencies": {
        "estraverse": {
          "version": "4.1.1",
          "from": "estraverse@>=4.1.0 <4.2.0",
          "resolved": "https://registry.npmjs.org/estraverse/-/estraverse-4.1.1.tgz"
        }
      }
    },
    "estraverse": {
      "version": "4.2.0",
      "from": "estraverse@>=4.2.0 <5.0.0",
      "resolved": "https://registry.npmjs.org/estraverse/-/estraverse-4.2.0.tgz"
    },
    "esutils": {
      "version": "2.0.2",
      "from": "esutils@>=2.0.2 <3.0.0",
      "resolved": "https://registry.npmjs.org/esutils/-/esutils-2.0.2.tgz"
    },
    "event-emitter": {
      "version": "0.3.4",
      "from": "event-emitter@>=0.3.4 <0.4.0",
      "resolved": "https://registry.npmjs.org/event-emitter/-/event-emitter-0.3.4.tgz"
    },
    "event-stream": {
      "version": "3.3.2",
      "from": "event-stream@>=3.3.0 <3.4.0",
      "resolved": "https://registry.npmjs.org/event-stream/-/event-stream-3.3.2.tgz"
    },
    "exit-hook": {
      "version": "1.1.1",
      "from": "exit-hook@>=1.0.0 <2.0.0",
      "resolved": "https://registry.npmjs.org/exit-hook/-/exit-hook-1.1.1.tgz"
    },
    "expand-brackets": {
      "version": "0.1.5",
      "from": "expand-brackets@>=0.1.4 <0.2.0",
      "resolved": "https://registry.npmjs.org/expand-brackets/-/expand-brackets-0.1.5.tgz"
    },
    "expand-range": {
      "version": "1.8.1",
      "from": "expand-range@>=1.8.1 <2.0.0",
      "resolved": "https://registry.npmjs.org/expand-range/-/expand-range-1.8.1.tgz"
    },
    "extglob": {
      "version": "0.3.2",
      "from": "extglob@>=0.3.1 <0.4.0",
      "resolved": "https://registry.npmjs.org/extglob/-/extglob-0.3.2.tgz"
    },
    "falafel": {
      "version": "1.2.0",
      "from": "falafel@>=1.0.1 <2.0.0",
      "resolved": "https://registry.npmjs.org/falafel/-/falafel-1.2.0.tgz",
      "dependencies": {
        "acorn": {
          "version": "1.2.2",
          "from": "acorn@>=1.0.3 <2.0.0",
          "resolved": "https://registry.npmjs.org/acorn/-/acorn-1.2.2.tgz"
        }
      }
    },
    "fast-levenshtein": {
      "version": "1.1.3",
      "from": "fast-levenshtein@>=1.1.0 <2.0.0",
      "resolved": "https://registry.npmjs.org/fast-levenshtein/-/fast-levenshtein-1.1.3.tgz"
    },
    "figures": {
      "version": "1.5.0",
      "from": "figures@>=1.3.5 <2.0.0",
      "resolved": "https://registry.npmjs.org/figures/-/figures-1.5.0.tgz"
    },
    "file-entry-cache": {
      "version": "1.2.4",
      "from": "file-entry-cache@>=1.1.1 <2.0.0",
      "resolved": "https://registry.npmjs.org/file-entry-cache/-/file-entry-cache-1.2.4.tgz"
    },
    "filename-regex": {
      "version": "2.0.0",
      "from": "filename-regex@>=2.0.0 <3.0.0",
      "resolved": "https://registry.npmjs.org/filename-regex/-/filename-regex-2.0.0.tgz"
    },
    "fill-range": {
      "version": "2.2.3",
      "from": "fill-range@>=2.1.0 <3.0.0",
      "resolved": "https://registry.npmjs.org/fill-range/-/fill-range-2.2.3.tgz"
    },
    "flat-cache": {
      "version": "1.0.10",
      "from": "flat-cache@>=1.0.9 <2.0.0",
      "resolved": "https://registry.npmjs.org/flat-cache/-/flat-cache-1.0.10.tgz"
    },
    "for-in": {
      "version": "0.1.5",
      "from": "for-in@>=0.1.5 <0.2.0",
      "resolved": "https://registry.npmjs.org/for-in/-/for-in-0.1.5.tgz"
    },
    "for-own": {
      "version": "0.1.4",
      "from": "for-own@>=0.1.3 <0.2.0",
      "resolved": "https://registry.npmjs.org/for-own/-/for-own-0.1.4.tgz"
    },
    "foreach": {
      "version": "2.0.5",
      "from": "foreach@>=2.0.5 <3.0.0",
      "resolved": "https://registry.npmjs.org/foreach/-/foreach-2.0.5.tgz"
    },
    "from": {
      "version": "0.1.3",
      "from": "from@>=0.0.0 <1.0.0",
      "resolved": "https://registry.npmjs.org/from/-/from-0.1.3.tgz"
    },
    "generate-function": {
      "version": "2.0.0",
      "from": "generate-function@>=2.0.0 <3.0.0",
      "resolved": "https://registry.npmjs.org/generate-function/-/generate-function-2.0.0.tgz"
    },
    "generate-object-property": {
      "version": "1.2.0",
      "from": "generate-object-property@>=1.1.0 <2.0.0",
      "resolved": "https://registry.npmjs.org/generate-object-property/-/generate-object-property-1.2.0.tgz"
    },
    "glob": {
      "version": "7.0.3",
      "from": "glob@>=7.0.3 <8.0.0",
      "resolved": "https://registry.npmjs.org/glob/-/glob-7.0.3.tgz"
    },
    "glob-base": {
      "version": "0.3.0",
      "from": "glob-base@>=0.3.0 <0.4.0",
      "resolved": "https://registry.npmjs.org/glob-base/-/glob-base-0.3.0.tgz"
    },
    "glob-parent": {
      "version": "2.0.0",
      "from": "glob-parent@>=2.0.0 <3.0.0",
      "resolved": "https://registry.npmjs.org/glob-parent/-/glob-parent-2.0.0.tgz"
    },
    "globals": {
      "version": "9.4.0",
      "from": "globals@>=9.2.0 <10.0.0",
      "resolved": "https://registry.npmjs.org/globals/-/globals-9.4.0.tgz"
    },
    "globby": {
      "version": "4.0.0",
      "from": "globby@>=4.0.0 <5.0.0",
      "resolved": "https://registry.npmjs.org/globby/-/globby-4.0.0.tgz",
      "dependencies": {
        "glob": {
          "version": "6.0.4",
          "from": "glob@>=6.0.1 <7.0.0",
          "resolved": "https://registry.npmjs.org/glob/-/glob-6.0.4.tgz"
        }
      }
    },
    "glue": {
      "version": "3.2.0",
      "from": "glue@>=3.2.0 <4.0.0",
      "resolved": "https://registry.npmjs.org/glue/-/glue-3.2.0.tgz",
      "dependencies": {
        "joi": {
          "version": "7.3.0",
          "from": "joi@>=7.0.0 <8.0.0",
          "resolved": "https://registry.npmjs.org/joi/-/joi-7.3.0.tgz"
        }
      }
    },
    "good": {
      "version": "6.6.0",
      "from": "good@>=6.6.0 <7.0.0",
      "resolved": "https://registry.npmjs.org/good/-/good-6.6.0.tgz",
      "dependencies": {
        "hoek": {
          "version": "2.16.3",
          "from": "hoek@>=2.0.0 <3.0.0",
          "resolved": "https://registry.npmjs.org/hoek/-/hoek-2.16.3.tgz"
        },
        "isemail": {
          "version": "1.2.0",
          "from": "isemail@>=1.0.0 <2.0.0",
          "resolved": "https://registry.npmjs.org/isemail/-/isemail-1.2.0.tgz"
        },
        "items": {
          "version": "1.1.1",
          "from": "items@>=1.0.0 <2.0.0",
          "resolved": "https://registry.npmjs.org/items/-/items-1.1.1.tgz"
        },
        "joi": {
          "version": "6.10.1",
          "from": "joi@>=6.0.0 <7.0.0",
          "resolved": "https://registry.npmjs.org/joi/-/joi-6.10.1.tgz"
        },
        "topo": {
          "version": "1.1.0",
          "from": "topo@>=1.0.0 <2.0.0",
          "resolved": "https://registry.npmjs.org/topo/-/topo-1.1.0.tgz"
        },
        "wreck": {
          "version": "6.3.0",
          "from": "wreck@>=6.0.0 <7.0.0",
          "resolved": "https://registry.npmjs.org/wreck/-/wreck-6.3.0.tgz"
        }
      }
    },
    "good-console": {
      "version": "5.3.1",
      "from": "good-console@>=5.3.1 <6.0.0",
      "resolved": "https://registry.npmjs.org/good-console/-/good-console-5.3.1.tgz",
      "dependencies": {
        "good-squeeze": {
          "version": "2.1.0",
          "from": "good-squeeze@>=2.0.0 <3.0.0",
          "resolved": "https://registry.npmjs.org/good-squeeze/-/good-squeeze-2.1.0.tgz"
        },
        "hoek": {
          "version": "2.16.3",
          "from": "hoek@>=2.0.0 <3.0.0",
          "resolved": "https://registry.npmjs.org/hoek/-/hoek-2.16.3.tgz"
        },
        "moment": {
          "version": "2.11.2",
          "from": "moment@>=2.11.0 <2.12.0",
          "resolved": "https://registry.npmjs.org/moment/-/moment-2.11.2.tgz"
        },
        "through2": {
          "version": "0.6.5",
          "from": "through2@>=0.6.0 <0.7.0",
          "resolved": "https://registry.npmjs.org/through2/-/through2-0.6.5.tgz"
        }
      }
    },
    "good-squeeze": {
      "version": "3.0.0",
      "from": "good-squeeze@>=3.0.0 <4.0.0",
      "resolved": "https://registry.npmjs.org/good-squeeze/-/good-squeeze-3.0.0.tgz"
    },
    "got": {
      "version": "3.3.1",
      "from": "got@>=3.2.0 <4.0.0",
      "resolved": "https://registry.npmjs.org/got/-/got-3.3.1.tgz",
      "dependencies": {
        "object-assign": {
          "version": "3.0.0",
          "from": "object-assign@>=3.0.0 <4.0.0",
          "resolved": "https://registry.npmjs.org/object-assign/-/object-assign-3.0.0.tgz"
        }
      }
    },
    "graceful-fs": {
      "version": "4.1.3",
      "from": "graceful-fs@>=4.1.2 <5.0.0",
      "resolved": "https://registry.npmjs.org/graceful-fs/-/graceful-fs-4.1.3.tgz"
    },
    "handlebars": {
      "version": "4.0.5",
      "from": "handlebars@>=4.0.5 <5.0.0",
      "resolved": "https://registry.npmjs.org/handlebars/-/handlebars-4.0.5.tgz"
    },
    "hapi": {
      "version": "13.3.0",
      "from": "hapi@>=13.2.1 <14.0.0",
      "resolved": "https://registry.npmjs.org/hapi/-/hapi-13.3.0.tgz",
      "dependencies": {
        "accept": {
          "version": "2.1.0",
          "from": "accept@2.1.0",
          "resolved": "https://registry.npmjs.org/accept/-/accept-2.1.0.tgz"
        },
        "ammo": {
          "version": "2.0.0",
          "from": "ammo@2.0.0",
          "resolved": "https://registry.npmjs.org/ammo/-/ammo-2.0.0.tgz"
        },
        "boom": {
          "version": "3.1.2",
          "from": "boom@3.1.2",
          "resolved": "https://registry.npmjs.org/boom/-/boom-3.1.2.tgz"
        },
        "call": {
          "version": "3.0.0",
          "from": "call@3.0.0",
          "resolved": "https://registry.npmjs.org/call/-/call-3.0.0.tgz"
        },
        "catbox": {
          "version": "7.1.0",
          "from": "catbox@7.1.0",
          "resolved": "https://registry.npmjs.org/catbox/-/catbox-7.1.0.tgz",
          "dependencies": {
            "joi": {
              "version": "7.3.0",
              "from": "joi@>=7.0.0 <8.0.0",
              "resolved": "https://registry.npmjs.org/joi/-/joi-7.3.0.tgz"
            }
          }
        },
        "catbox-memory": {
          "version": "2.0.1",
          "from": "catbox-memory@2.0.1",
          "resolved": "https://registry.npmjs.org/catbox-memory/-/catbox-memory-2.0.1.tgz"
        },
        "cryptiles": {
          "version": "3.0.0",
          "from": "cryptiles@3.0.0",
          "resolved": "https://registry.npmjs.org/cryptiles/-/cryptiles-3.0.0.tgz"
        },
        "heavy": {
          "version": "4.0.0",
          "from": "heavy@4.0.0",
          "resolved": "https://registry.npmjs.org/heavy/-/heavy-4.0.0.tgz",
          "dependencies": {
            "joi": {
              "version": "7.3.0",
              "from": "joi@>=7.0.0 <8.0.0",
              "resolved": "https://registry.npmjs.org/joi/-/joi-7.3.0.tgz"
            }
          }
        },
        "hoek": {
          "version": "3.0.4",
          "from": "hoek@3.0.4",
          "resolved": "https://registry.npmjs.org/hoek/-/hoek-3.0.4.tgz"
        },
        "iron": {
          "version": "4.0.0",
          "from": "iron@4.0.0",
          "resolved": "https://registry.npmjs.org/iron/-/iron-4.0.0.tgz"
        },
        "items": {
          "version": "2.0.0",
          "from": "items@2.0.0",
          "resolved": "https://registry.npmjs.org/items/-/items-2.0.0.tgz"
        },
        "joi": {
          "version": "8.0.4",
          "from": "joi@8.0.4",
          "resolved": "https://registry.npmjs.org/joi/-/joi-8.0.4.tgz",
          "dependencies": {
            "isemail": {
              "version": "2.1.0",
              "from": "isemail@2.1.0",
              "resolved": "https://registry.npmjs.org/isemail/-/isemail-2.1.0.tgz"
            },
            "moment": {
              "version": "2.12.0",
              "from": "moment@2.12.0",
              "resolved": "https://registry.npmjs.org/moment/-/moment-2.12.0.tgz"
            }
          }
        },
        "kilt": {
          "version": "2.0.0",
          "from": "kilt@2.0.0",
          "resolved": "https://registry.npmjs.org/kilt/-/kilt-2.0.0.tgz"
        },
        "mimos": {
          "version": "3.0.0",
          "from": "mimos@3.0.0",
          "resolved": "https://registry.npmjs.org/mimos/-/mimos-3.0.0.tgz",
          "dependencies": {
            "mime-db": {
              "version": "1.22.0",
              "from": "mime-db@1.22.0",
              "resolved": "https://registry.npmjs.org/mime-db/-/mime-db-1.22.0.tgz"
            }
          }
        },
        "peekaboo": {
          "version": "2.0.0",
          "from": "peekaboo@2.0.0",
          "resolved": "https://registry.npmjs.org/peekaboo/-/peekaboo-2.0.0.tgz"
        },
        "shot": {
          "version": "3.0.1",
          "from": "shot@3.0.1",
          "resolved": "https://registry.npmjs.org/shot/-/shot-3.0.1.tgz"
        },
        "statehood": {
          "version": "4.0.0",
          "from": "statehood@4.0.0",
          "resolved": "https://registry.npmjs.org/statehood/-/statehood-4.0.0.tgz",
          "dependencies": {
            "joi": {
              "version": "7.3.0",
              "from": "joi@>=7.0.0 <8.0.0",
              "resolved": "https://registry.npmjs.org/joi/-/joi-7.3.0.tgz"
            }
          }
        },
        "subtext": {
          "version": "4.0.0",
          "from": "subtext@4.0.0",
          "resolved": "https://registry.npmjs.org/subtext/-/subtext-4.0.0.tgz",
          "dependencies": {
            "content": {
              "version": "3.0.0",
              "from": "content@3.0.0",
              "resolved": "https://registry.npmjs.org/content/-/content-3.0.0.tgz"
            },
            "pez": {
              "version": "2.0.1",
              "from": "pez@2.0.1",
              "resolved": "https://registry.npmjs.org/pez/-/pez-2.0.1.tgz",
              "dependencies": {
                "b64": {
                  "version": "3.0.0",
                  "from": "b64@3.0.0",
                  "resolved": "https://registry.npmjs.org/b64/-/b64-3.0.0.tgz"
                },
                "nigel": {
                  "version": "2.0.0",
                  "from": "nigel@2.0.0",
                  "resolved": "https://registry.npmjs.org/nigel/-/nigel-2.0.0.tgz",
                  "dependencies": {
                    "vise": {
                      "version": "2.0.0",
                      "from": "vise@2.0.0",
                      "resolved": "https://registry.npmjs.org/vise/-/vise-2.0.0.tgz"
                    }
                  }
                }
              }
            },
            "wreck": {
              "version": "7.0.2",
              "from": "wreck@7.0.2",
              "resolved": "https://registry.npmjs.org/wreck/-/wreck-7.0.2.tgz"
            }
          }
        },
        "topo": {
          "version": "2.0.0",
          "from": "topo@2.0.0",
          "resolved": "https://registry.npmjs.org/topo/-/topo-2.0.0.tgz"
        }
      }
    },
    "hapi-capitalize-modules": {
      "version": "1.1.4",
      "from": "hapi-capitalize-modules@>=1.0.0 <2.0.0",
      "resolved": "https://registry.npmjs.org/hapi-capitalize-modules/-/hapi-capitalize-modules-1.1.4.tgz"
    },
    "hapi-for-you": {
      "version": "1.0.0",
      "from": "hapi-for-you@>=1.0.0 <2.0.0",
      "resolved": "https://registry.npmjs.org/hapi-for-you/-/hapi-for-you-1.0.0.tgz"
    },
    "hapi-pkg": {
      "version": "1.1.0",
      "from": "hapi-pkg@>=1.1.0 <2.0.0",
      "resolved": "https://registry.npmjs.org/hapi-pkg/-/hapi-pkg-1.1.0.tgz"
    },
    "hapi-scope-start": {
      "version": "2.1.1",
      "from": "hapi-scope-start@>=2.0.0 <3.0.0",
      "resolved": "https://registry.npmjs.org/hapi-scope-start/-/hapi-scope-start-2.1.1.tgz"
    },
    "hapi-swagger": {
      "version": "4.3.1",
      "from": "hapi-swagger@>=4.3.0 <5.0.0",
      "resolved": "https://registry.npmjs.org/hapi-swagger/-/hapi-swagger-4.3.1.tgz",
      "dependencies": {
        "boom": {
          "version": "3.1.2",
          "from": "boom@>=3.1.2 <4.0.0"
        }
      }
    },
    "has-ansi": {
      "version": "2.0.0",
      "from": "has-ansi@>=2.0.0 <3.0.0",
      "resolved": "https://registry.npmjs.org/has-ansi/-/has-ansi-2.0.0.tgz"
    },
    "hoek": {
      "version": "3.0.4",
      "from": "hoek@>=3.0.0 <4.0.0"
    },
    "http-status": {
      "version": "0.2.0",
      "from": "http-status@0.2.0",
      "resolved": "https://registry.npmjs.org/http-status/-/http-status-0.2.0.tgz"
    },
    "ignore": {
      "version": "3.1.1",
      "from": "ignore@>=3.0.10 <4.0.0",
      "resolved": "https://registry.npmjs.org/ignore/-/ignore-3.1.1.tgz"
    },
    "ignore-by-default": {
      "version": "1.0.1",
      "from": "ignore-by-default@>=1.0.0 <2.0.0",
      "resolved": "https://registry.npmjs.org/ignore-by-default/-/ignore-by-default-1.0.1.tgz"
    },
    "imurmurhash": {
      "version": "0.1.4",
      "from": "imurmurhash@>=0.1.4 <0.2.0",
      "resolved": "https://registry.npmjs.org/imurmurhash/-/imurmurhash-0.1.4.tgz"
    },
    "inert": {
      "version": "3.2.0",
      "from": "inert@>=3.2.0 <4.0.0",
      "resolved": "https://registry.npmjs.org/inert/-/inert-3.2.0.tgz",
      "dependencies": {
        "hoek": {
          "version": "2.16.3",
          "from": "hoek@>=2.0.0 <3.0.0",
          "resolved": "https://registry.npmjs.org/hoek/-/hoek-2.16.3.tgz"
        },
        "isemail": {
          "version": "1.2.0",
          "from": "isemail@>=1.0.0 <2.0.0",
          "resolved": "https://registry.npmjs.org/isemail/-/isemail-1.2.0.tgz"
        },
        "items": {
          "version": "1.1.1",
          "from": "items@>=1.0.0 <2.0.0",
          "resolved": "https://registry.npmjs.org/items/-/items-1.1.1.tgz"
        },
        "joi": {
          "version": "6.10.1",
          "from": "joi@>=6.7.0 <7.0.0",
          "resolved": "https://registry.npmjs.org/joi/-/joi-6.10.1.tgz"
        },
        "topo": {
          "version": "1.1.0",
          "from": "topo@>=1.0.0 <2.0.0",
          "resolved": "https://registry.npmjs.org/topo/-/topo-1.1.0.tgz"
        }
      }
    },
    "infinity-agent": {
      "version": "2.0.3",
      "from": "infinity-agent@>=2.0.0 <3.0.0",
      "resolved": "https://registry.npmjs.org/infinity-agent/-/infinity-agent-2.0.3.tgz"
    },
    "inflight": {
      "version": "1.0.4",
      "from": "inflight@>=1.0.4 <2.0.0",
      "resolved": "https://registry.npmjs.org/inflight/-/inflight-1.0.4.tgz"
    },
    "inherits": {
      "version": "2.0.1",
      "from": "inherits@>=2.0.1 <2.1.0",
      "resolved": "https://registry.npmjs.org/inherits/-/inherits-2.0.1.tgz"
    },
    "ini": {
      "version": "1.3.4",
      "from": "ini@>=1.3.0 <1.4.0",
      "resolved": "https://registry.npmjs.org/ini/-/ini-1.3.4.tgz"
    },
    "inline-process-browser": {
      "version": "2.0.1",
      "from": "inline-process-browser@>=2.0.1 <2.1.0",
      "resolved": "https://registry.npmjs.org/inline-process-browser/-/inline-process-browser-2.0.1.tgz",
      "dependencies": {
        "through2": {
          "version": "0.6.5",
          "from": "through2@>=0.6.5 <0.7.0",
          "resolved": "https://registry.npmjs.org/through2/-/through2-0.6.5.tgz"
        }
      }
    },
    "inquirer": {
      "version": "0.12.0",
      "from": "inquirer@>=0.12.0 <0.13.0",
      "resolved": "https://registry.npmjs.org/inquirer/-/inquirer-0.12.0.tgz",
      "dependencies": {
        "lodash": {
          "version": "4.11.0",
          "from": "lodash@>=4.3.0 <5.0.0",
          "resolved": "https://registry.npmjs.org/lodash/-/lodash-4.11.0.tgz"
        }
      }
    },
    "is-binary-path": {
      "version": "1.0.1",
      "from": "is-binary-path@>=1.0.0 <2.0.0",
      "resolved": "https://registry.npmjs.org/is-binary-path/-/is-binary-path-1.0.1.tgz"
    },
    "is-buffer": {
      "version": "1.1.3",
      "from": "is-buffer@>=1.0.2 <2.0.0",
      "resolved": "https://registry.npmjs.org/is-buffer/-/is-buffer-1.1.3.tgz"
    },
    "is-dotfile": {
      "version": "1.0.2",
      "from": "is-dotfile@>=1.0.0 <2.0.0",
      "resolved": "https://registry.npmjs.org/is-dotfile/-/is-dotfile-1.0.2.tgz"
    },
    "is-equal-shallow": {
      "version": "0.1.3",
      "from": "is-equal-shallow@>=0.1.3 <0.2.0",
      "resolved": "https://registry.npmjs.org/is-equal-shallow/-/is-equal-shallow-0.1.3.tgz"
    },
    "is-extendable": {
      "version": "0.1.1",
      "from": "is-extendable@>=0.1.1 <0.2.0",
      "resolved": "https://registry.npmjs.org/is-extendable/-/is-extendable-0.1.1.tgz"
    },
    "is-extglob": {
      "version": "1.0.0",
      "from": "is-extglob@>=1.0.0 <2.0.0",
      "resolved": "https://registry.npmjs.org/is-extglob/-/is-extglob-1.0.0.tgz"
    },
    "is-finite": {
      "version": "1.0.1",
      "from": "is-finite@>=1.0.0 <2.0.0",
      "resolved": "https://registry.npmjs.org/is-finite/-/is-finite-1.0.1.tgz"
    },
    "is-fullwidth-code-point": {
      "version": "1.0.0",
      "from": "is-fullwidth-code-point@>=1.0.0 <2.0.0",
      "resolved": "https://registry.npmjs.org/is-fullwidth-code-point/-/is-fullwidth-code-point-1.0.0.tgz"
    },
    "is-glob": {
      "version": "2.0.1",
      "from": "is-glob@>=2.0.0 <3.0.0",
      "resolved": "https://registry.npmjs.org/is-glob/-/is-glob-2.0.1.tgz"
    },
    "is-my-json-valid": {
      "version": "2.13.1",
      "from": "is-my-json-valid@>=2.10.0 <3.0.0",
      "resolved": "https://registry.npmjs.org/is-my-json-valid/-/is-my-json-valid-2.13.1.tgz"
    },
    "is-npm": {
      "version": "1.0.0",
      "from": "is-npm@>=1.0.0 <2.0.0",
      "resolved": "https://registry.npmjs.org/is-npm/-/is-npm-1.0.0.tgz"
    },
    "is-number": {
      "version": "2.1.0",
      "from": "is-number@>=2.1.0 <3.0.0",
      "resolved": "https://registry.npmjs.org/is-number/-/is-number-2.1.0.tgz"
    },
    "is-path-cwd": {
      "version": "1.0.0",
      "from": "is-path-cwd@>=1.0.0 <2.0.0",
      "resolved": "https://registry.npmjs.org/is-path-cwd/-/is-path-cwd-1.0.0.tgz"
    },
    "is-path-in-cwd": {
      "version": "1.0.0",
      "from": "is-path-in-cwd@>=1.0.0 <2.0.0",
      "resolved": "https://registry.npmjs.org/is-path-in-cwd/-/is-path-in-cwd-1.0.0.tgz"
    },
    "is-path-inside": {
      "version": "1.0.0",
      "from": "is-path-inside@>=1.0.0 <2.0.0",
      "resolved": "https://registry.npmjs.org/is-path-inside/-/is-path-inside-1.0.0.tgz"
    },
    "is-posix-bracket": {
      "version": "0.1.1",
      "from": "is-posix-bracket@>=0.1.0 <0.2.0",
      "resolved": "https://registry.npmjs.org/is-posix-bracket/-/is-posix-bracket-0.1.1.tgz"
    },
    "is-primitive": {
      "version": "2.0.0",
      "from": "is-primitive@>=2.0.0 <3.0.0",
      "resolved": "https://registry.npmjs.org/is-primitive/-/is-primitive-2.0.0.tgz"
    },
    "is-property": {
      "version": "1.0.2",
      "from": "is-property@>=1.0.0 <2.0.0",
      "resolved": "https://registry.npmjs.org/is-property/-/is-property-1.0.2.tgz"
    },
    "is-redirect": {
      "version": "1.0.0",
      "from": "is-redirect@>=1.0.0 <2.0.0",
      "resolved": "https://registry.npmjs.org/is-redirect/-/is-redirect-1.0.0.tgz"
    },
    "is-resolvable": {
      "version": "1.0.0",
      "from": "is-resolvable@>=1.0.0 <2.0.0",
      "resolved": "https://registry.npmjs.org/is-resolvable/-/is-resolvable-1.0.0.tgz"
    },
    "is-stream": {
      "version": "1.1.0",
      "from": "is-stream@>=1.0.0 <2.0.0",
      "resolved": "https://registry.npmjs.org/is-stream/-/is-stream-1.1.0.tgz"
    },
    "isarray": {
      "version": "0.0.1",
      "from": "isarray@0.0.1",
      "resolved": "https://registry.npmjs.org/isarray/-/isarray-0.0.1.tgz"
    },
    "isemail": {
      "version": "2.1.0",
      "from": "isemail@>=2.0.0 <3.0.0"
    },
    "isobject": {
      "version": "2.0.0",
      "from": "isobject@>=2.0.0 <3.0.0",
      "resolved": "https://registry.npmjs.org/isobject/-/isobject-2.0.0.tgz"
    },
    "items": {
      "version": "2.0.0",
      "from": "items@>=2.0.0 <3.0.0"
    },
    "joi": {
      "version": "8.0.5",
      "from": "joi@>=8.0.5 <9.0.0",
      "resolved": "https://registry.npmjs.org/joi/-/joi-8.0.5.tgz"
    },
    "js-yaml": {
      "version": "3.5.5",
      "from": "js-yaml@>=3.4.6 <4.0.0",
      "resolved": "https://registry.npmjs.org/js-yaml/-/js-yaml-3.5.5.tgz"
    },
    "json-schema-ref-parser": {
      "version": "2.2.0",
      "from": "json-schema-ref-parser@>=2.2.0 <3.0.0",
      "resolved": "https://registry.npmjs.org/json-schema-ref-parser/-/json-schema-ref-parser-2.2.0.tgz"
    },
    "json-stable-stringify": {
      "version": "1.0.1",
      "from": "json-stable-stringify@>=1.0.0 <2.0.0",
      "resolved": "https://registry.npmjs.org/json-stable-stringify/-/json-stable-stringify-1.0.1.tgz"
    },
    "json-stringify-safe": {
      "version": "5.0.1",
      "from": "json-stringify-safe@>=5.0.1 <6.0.0",
      "resolved": "https://registry.npmjs.org/json-stringify-safe/-/json-stringify-safe-5.0.1.tgz"
    },
    "jsonify": {
      "version": "0.0.0",
      "from": "jsonify@>=0.0.0 <0.1.0",
      "resolved": "https://registry.npmjs.org/jsonify/-/jsonify-0.0.0.tgz"
    },
    "jsonpointer": {
      "version": "2.0.0",
      "from": "jsonpointer@2.0.0",
      "resolved": "https://registry.npmjs.org/jsonpointer/-/jsonpointer-2.0.0.tgz"
    },
    "kind-of": {
      "version": "3.0.2",
      "from": "kind-of@>=3.0.2 <4.0.0",
      "resolved": "https://registry.npmjs.org/kind-of/-/kind-of-3.0.2.tgz"
    },
    "latest-version": {
      "version": "1.0.1",
      "from": "latest-version@>=1.0.0 <2.0.0",
      "resolved": "https://registry.npmjs.org/latest-version/-/latest-version-1.0.1.tgz"
    },
    "lazy-cache": {
      "version": "1.0.3",
      "from": "lazy-cache@>=1.0.3 <2.0.0",
      "resolved": "https://registry.npmjs.org/lazy-cache/-/lazy-cache-1.0.3.tgz"
    },
    "levn": {
      "version": "0.3.0",
      "from": "levn@>=0.3.0 <0.4.0",
      "resolved": "https://registry.npmjs.org/levn/-/levn-0.3.0.tgz"
    },
    "lodash": {
      "version": "3.10.1",
      "from": "lodash@>=3.8.0 <4.0.0",
      "resolved": "https://registry.npmjs.org/lodash/-/lodash-3.10.1.tgz"
    },
    "lodash._baseassign": {
      "version": "3.2.0",
      "from": "lodash._baseassign@>=3.0.0 <4.0.0",
      "resolved": "https://registry.npmjs.org/lodash._baseassign/-/lodash._baseassign-3.2.0.tgz"
    },
    "lodash._basecopy": {
      "version": "3.0.1",
      "from": "lodash._basecopy@>=3.0.0 <4.0.0",
      "resolved": "https://registry.npmjs.org/lodash._basecopy/-/lodash._basecopy-3.0.1.tgz"
    },
    "lodash._bindcallback": {
      "version": "3.0.1",
      "from": "lodash._bindcallback@>=3.0.0 <4.0.0",
      "resolved": "https://registry.npmjs.org/lodash._bindcallback/-/lodash._bindcallback-3.0.1.tgz"
    },
    "lodash._createassigner": {
      "version": "3.1.1",
      "from": "lodash._createassigner@>=3.0.0 <4.0.0",
      "resolved": "https://registry.npmjs.org/lodash._createassigner/-/lodash._createassigner-3.1.1.tgz"
    },
    "lodash._getnative": {
      "version": "3.9.1",
      "from": "lodash._getnative@>=3.0.0 <4.0.0",
      "resolved": "https://registry.npmjs.org/lodash._getnative/-/lodash._getnative-3.9.1.tgz"
    },
    "lodash._isiterateecall": {
      "version": "3.0.9",
      "from": "lodash._isiterateecall@>=3.0.0 <4.0.0",
      "resolved": "https://registry.npmjs.org/lodash._isiterateecall/-/lodash._isiterateecall-3.0.9.tgz"
    },
    "lodash.assign": {
      "version": "3.2.0",
      "from": "lodash.assign@>=3.0.0 <4.0.0",
      "resolved": "https://registry.npmjs.org/lodash.assign/-/lodash.assign-3.2.0.tgz"
    },
    "lodash.defaults": {
      "version": "3.1.2",
      "from": "lodash.defaults@>=3.1.2 <4.0.0",
      "resolved": "https://registry.npmjs.org/lodash.defaults/-/lodash.defaults-3.1.2.tgz"
    },
    "lodash.isarguments": {
      "version": "3.0.8",
      "from": "lodash.isarguments@>=3.0.0 <4.0.0",
      "resolved": "https://registry.npmjs.org/lodash.isarguments/-/lodash.isarguments-3.0.8.tgz"
    },
    "lodash.isarray": {
      "version": "3.0.4",
      "from": "lodash.isarray@>=3.0.0 <4.0.0",
      "resolved": "https://registry.npmjs.org/lodash.isarray/-/lodash.isarray-3.0.4.tgz"
    },
    "lodash.keys": {
      "version": "3.1.2",
      "from": "lodash.keys@>=3.0.0 <4.0.0",
      "resolved": "https://registry.npmjs.org/lodash.keys/-/lodash.keys-3.1.2.tgz"
    },
    "lodash.restparam": {
      "version": "3.6.1",
      "from": "lodash.restparam@>=3.0.0 <4.0.0",
      "resolved": "https://registry.npmjs.org/lodash.restparam/-/lodash.restparam-3.6.1.tgz"
    },
    "longest": {
      "version": "1.0.1",
      "from": "longest@>=1.0.1 <2.0.0",
      "resolved": "https://registry.npmjs.org/longest/-/longest-1.0.1.tgz"
    },
    "lowercase-keys": {
      "version": "1.0.0",
      "from": "lowercase-keys@>=1.0.0 <2.0.0",
      "resolved": "https://registry.npmjs.org/lowercase-keys/-/lowercase-keys-1.0.0.tgz"
    },
    "lru-cache": {
      "version": "2.7.3",
      "from": "lru-cache@>=2.7.0 <2.8.0",
      "resolved": "https://registry.npmjs.org/lru-cache/-/lru-cache-2.7.3.tgz"
    },
    "map-stream": {
      "version": "0.1.0",
      "from": "map-stream@>=0.1.0 <0.2.0",
      "resolved": "https://registry.npmjs.org/map-stream/-/map-stream-0.1.0.tgz"
    },
    "micromatch": {
      "version": "2.3.7",
      "from": "micromatch@>=2.1.5 <3.0.0",
      "resolved": "https://registry.npmjs.org/micromatch/-/micromatch-2.3.7.tgz"
    },
    "minimatch": {
      "version": "3.0.0",
      "from": "minimatch@>=2.0.0 <3.0.0||>=3.0.0 <4.0.0",
      "resolved": "https://registry.npmjs.org/minimatch/-/minimatch-3.0.0.tgz"
    },
    "minimist": {
      "version": "0.0.10",
      "from": "minimist@>=0.0.1 <0.1.0",
      "resolved": "https://registry.npmjs.org/minimist/-/minimist-0.0.10.tgz"
    },
    "mkdirp": {
      "version": "0.5.1",
      "from": "mkdirp@>=0.5.0 <0.6.0",
      "resolved": "https://registry.npmjs.org/mkdirp/-/mkdirp-0.5.1.tgz",
      "dependencies": {
        "minimist": {
          "version": "0.0.8",
          "from": "minimist@0.0.8",
          "resolved": "https://registry.npmjs.org/minimist/-/minimist-0.0.8.tgz"
        }
      }
    },
    "moment": {
      "version": "2.12.0",
      "from": "moment@>=2.0.0 <3.0.0"
    },
    "ms": {
      "version": "0.7.1",
      "from": "ms@0.7.1",
      "resolved": "https://registry.npmjs.org/ms/-/ms-0.7.1.tgz"
    },
    "mute-stream": {
      "version": "0.0.5",
      "from": "mute-stream@0.0.5",
      "resolved": "https://registry.npmjs.org/mute-stream/-/mute-stream-0.0.5.tgz"
    },
    "nested-error-stacks": {
      "version": "1.0.2",
      "from": "nested-error-stacks@>=1.0.0 <2.0.0",
      "resolved": "https://registry.npmjs.org/nested-error-stacks/-/nested-error-stacks-1.0.2.tgz"
    },
    "no-arrowception": {
      "version": "1.0.0",
      "from": "no-arrowception@>=1.0.0 <2.0.0",
      "resolved": "https://registry.npmjs.org/no-arrowception/-/no-arrowception-1.0.0.tgz"
    },
    "node-uuid": {
      "version": "1.4.7",
      "from": "node-uuid@>=1.4.7 <2.0.0",
      "resolved": "https://registry.npmjs.org/node-uuid/-/node-uuid-1.4.7.tgz"
    },
    "nopt": {
      "version": "1.0.10",
      "from": "nopt@>=1.0.10 <1.1.0",
      "resolved": "https://registry.npmjs.org/nopt/-/nopt-1.0.10.tgz"
    },
    "normalize-path": {
      "version": "2.0.1",
      "from": "normalize-path@>=2.0.1 <3.0.0",
      "resolved": "https://registry.npmjs.org/normalize-path/-/normalize-path-2.0.1.tgz"
    },
    "number-is-nan": {
      "version": "1.0.0",
      "from": "number-is-nan@>=1.0.0 <2.0.0",
      "resolved": "https://registry.npmjs.org/number-is-nan/-/number-is-nan-1.0.0.tgz"
    },
    "object-assign": {
      "version": "4.0.1",
      "from": "object-assign@>=4.0.1 <5.0.0",
      "resolved": "https://registry.npmjs.org/object-assign/-/object-assign-4.0.1.tgz"
    },
    "object-keys": {
      "version": "1.0.9",
      "from": "object-keys@>=1.0.6 <2.0.0",
      "resolved": "https://registry.npmjs.org/object-keys/-/object-keys-1.0.9.tgz"
    },
    "object.omit": {
      "version": "2.0.0",
      "from": "object.omit@>=2.0.0 <3.0.0",
      "resolved": "https://registry.npmjs.org/object.omit/-/object.omit-2.0.0.tgz"
    },
    "once": {
      "version": "1.3.3",
      "from": "once@>=1.3.0 <2.0.0",
      "resolved": "https://registry.npmjs.org/once/-/once-1.3.3.tgz"
    },
    "onetime": {
      "version": "1.1.0",
      "from": "onetime@>=1.0.0 <2.0.0",
      "resolved": "https://registry.npmjs.org/onetime/-/onetime-1.1.0.tgz"
    },
    "ono": {
      "version": "2.2.1",
      "from": "ono@>=2.0.1 <3.0.0",
      "resolved": "https://registry.npmjs.org/ono/-/ono-2.2.1.tgz"
    },
    "optimist": {
      "version": "0.6.1",
      "from": "optimist@>=0.6.1 <0.7.0",
      "resolved": "https://registry.npmjs.org/optimist/-/optimist-0.6.1.tgz"
    },
    "optionator": {
      "version": "0.8.1",
      "from": "optionator@>=0.8.1 <0.9.0",
      "resolved": "https://registry.npmjs.org/optionator/-/optionator-0.8.1.tgz",
      "dependencies": {
        "wordwrap": {
          "version": "1.0.0",
          "from": "wordwrap@>=1.0.0 <1.1.0",
          "resolved": "https://registry.npmjs.org/wordwrap/-/wordwrap-1.0.0.tgz"
        }
      }
    },
    "os-homedir": {
      "version": "1.0.1",
      "from": "os-homedir@>=1.0.0 <2.0.0",
      "resolved": "https://registry.npmjs.org/os-homedir/-/os-homedir-1.0.1.tgz"
    },
    "os-tmpdir": {
      "version": "1.0.1",
      "from": "os-tmpdir@>=1.0.0 <2.0.0",
      "resolved": "https://registry.npmjs.org/os-tmpdir/-/os-tmpdir-1.0.1.tgz"
    },
    "osenv": {
      "version": "0.1.3",
      "from": "osenv@>=0.1.0 <0.2.0",
      "resolved": "https://registry.npmjs.org/osenv/-/osenv-0.1.3.tgz"
    },
    "package-json": {
      "version": "1.2.0",
      "from": "package-json@>=1.0.0 <2.0.0",
      "resolved": "https://registry.npmjs.org/package-json/-/package-json-1.2.0.tgz"
    },
    "parse-glob": {
      "version": "3.0.4",
      "from": "parse-glob@>=3.0.4 <4.0.0",
      "resolved": "https://registry.npmjs.org/parse-glob/-/parse-glob-3.0.4.tgz"
    },
    "path-is-absolute": {
      "version": "1.0.0",
      "from": "path-is-absolute@>=1.0.0 <2.0.0",
      "resolved": "https://registry.npmjs.org/path-is-absolute/-/path-is-absolute-1.0.0.tgz"
    },
    "path-is-inside": {
      "version": "1.0.1",
      "from": "path-is-inside@>=1.0.1 <2.0.0",
      "resolved": "https://registry.npmjs.org/path-is-inside/-/path-is-inside-1.0.1.tgz"
    },
    "pause-stream": {
      "version": "0.0.11",
      "from": "pause-stream@0.0.11",
      "resolved": "https://registry.npmjs.org/pause-stream/-/pause-stream-0.0.11.tgz"
    },
    "pify": {
      "version": "2.3.0",
      "from": "pify@>=2.0.0 <3.0.0",
      "resolved": "https://registry.npmjs.org/pify/-/pify-2.3.0.tgz"
    },
    "pinkie": {
      "version": "2.0.4",
      "from": "pinkie@>=2.0.0 <3.0.0",
      "resolved": "https://registry.npmjs.org/pinkie/-/pinkie-2.0.4.tgz"
    },
    "pinkie-promise": {
      "version": "2.0.1",
      "from": "pinkie-promise@>=2.0.0 <3.0.0",
      "resolved": "https://registry.npmjs.org/pinkie-promise/-/pinkie-promise-2.0.1.tgz"
    },
    "pluralize": {
      "version": "1.2.1",
      "from": "pluralize@>=1.2.1 <2.0.0",
      "resolved": "https://registry.npmjs.org/pluralize/-/pluralize-1.2.1.tgz"
    },
    "prelude-ls": {
      "version": "1.1.2",
      "from": "prelude-ls@>=1.1.2 <1.2.0",
      "resolved": "https://registry.npmjs.org/prelude-ls/-/prelude-ls-1.1.2.tgz"
    },
    "prepend-http": {
      "version": "1.0.3",
      "from": "prepend-http@>=1.0.0 <2.0.0",
      "resolved": "https://registry.npmjs.org/prepend-http/-/prepend-http-1.0.3.tgz"
    },
    "preserve": {
      "version": "0.2.0",
      "from": "preserve@>=0.2.0 <0.3.0",
      "resolved": "https://registry.npmjs.org/preserve/-/preserve-0.2.0.tgz"
    },
    "private": {
      "version": "0.1.6",
      "from": "private@>=0.1.5 <0.2.0",
      "resolved": "https://registry.npmjs.org/private/-/private-0.1.6.tgz"
    },
    "process-nextick-args": {
      "version": "1.0.6",
      "from": "process-nextick-args@>=1.0.6 <1.1.0",
      "resolved": "https://registry.npmjs.org/process-nextick-args/-/process-nextick-args-1.0.6.tgz"
    },
    "progress": {
      "version": "1.1.8",
      "from": "progress@>=1.1.8 <2.0.0",
      "resolved": "https://registry.npmjs.org/progress/-/progress-1.1.8.tgz"
    },
    "propagate": {
      "version": "0.3.1",
      "from": "propagate@>=0.3.0 <0.4.0",
      "resolved": "https://registry.npmjs.org/propagate/-/propagate-0.3.1.tgz"
    },
    "ps-tree": {
      "version": "1.0.1",
      "from": "ps-tree@>=1.0.1 <2.0.0",
      "resolved": "https://registry.npmjs.org/ps-tree/-/ps-tree-1.0.1.tgz"
    },
    "qs": {
      "version": "6.1.0",
      "from": "qs@>=6.0.2 <7.0.0",
      "resolved": "https://registry.npmjs.org/qs/-/qs-6.1.0.tgz"
    },
    "randomatic": {
      "version": "1.1.5",
      "from": "randomatic@>=1.1.3 <2.0.0",
      "resolved": "https://registry.npmjs.org/randomatic/-/randomatic-1.1.5.tgz"
    },
    "rc": {
      "version": "1.1.6",
      "from": "rc@>=1.0.1 <2.0.0",
      "resolved": "https://registry.npmjs.org/rc/-/rc-1.1.6.tgz",
      "dependencies": {
        "minimist": {
          "version": "1.2.0",
          "from": "minimist@>=1.2.0 <2.0.0",
          "resolved": "https://registry.npmjs.org/minimist/-/minimist-1.2.0.tgz"
        }
      }
    },
    "read-all-stream": {
      "version": "3.1.0",
      "from": "read-all-stream@>=3.0.0 <4.0.0",
      "resolved": "https://registry.npmjs.org/read-all-stream/-/read-all-stream-3.1.0.tgz",
      "dependencies": {
        "isarray": {
          "version": "1.0.0",
          "from": "isarray@>=1.0.0 <1.1.0",
          "resolved": "https://registry.npmjs.org/isarray/-/isarray-1.0.0.tgz"
        },
        "readable-stream": {
          "version": "2.1.0",
          "from": "readable-stream@>=2.0.0 <3.0.0",
          "resolved": "https://registry.npmjs.org/readable-stream/-/readable-stream-2.1.0.tgz"
        }
      }
    },
    "read-json-sync": {
      "version": "1.1.1",
      "from": "read-json-sync@>=1.1.0 <2.0.0",
      "resolved": "https://registry.npmjs.org/read-json-sync/-/read-json-sync-1.1.1.tgz"
    },
    "readable-stream": {
      "version": "1.0.34",
      "from": "readable-stream@>=1.0.33-1 <1.1.0-0",
      "resolved": "https://registry.npmjs.org/readable-stream/-/readable-stream-1.0.34.tgz"
    },
    "readdirp": {
      "version": "2.0.0",
      "from": "readdirp@>=2.0.0 <3.0.0",
      "resolved": "https://registry.npmjs.org/readdirp/-/readdirp-2.0.0.tgz",
      "dependencies": {
        "isarray": {
          "version": "1.0.0",
          "from": "isarray@>=1.0.0 <1.1.0",
          "resolved": "https://registry.npmjs.org/isarray/-/isarray-1.0.0.tgz"
        },
        "minimatch": {
          "version": "2.0.10",
          "from": "minimatch@>=2.0.10 <3.0.0",
          "resolved": "https://registry.npmjs.org/minimatch/-/minimatch-2.0.10.tgz"
        },
        "readable-stream": {
          "version": "2.1.0",
          "from": "readable-stream@>=2.0.2 <3.0.0",
          "resolved": "https://registry.npmjs.org/readable-stream/-/readable-stream-2.1.0.tgz"
        }
      }
    },
    "readline2": {
      "version": "1.0.1",
      "from": "readline2@>=1.0.1 <2.0.0",
      "resolved": "https://registry.npmjs.org/readline2/-/readline2-1.0.1.tgz"
    },
    "recast": {
      "version": "0.11.4",
      "from": "recast@>=0.11.4 <0.12.0",
      "resolved": "https://registry.npmjs.org/recast/-/recast-0.11.4.tgz",
      "dependencies": {
        "source-map": {
          "version": "0.5.3",
          "from": "source-map@>=0.5.0 <0.6.0",
          "resolved": "https://registry.npmjs.org/source-map/-/source-map-0.5.3.tgz"
        }
      }
    },
    "regex-cache": {
      "version": "0.4.3",
      "from": "regex-cache@>=0.4.2 <0.5.0",
      "resolved": "https://registry.npmjs.org/regex-cache/-/regex-cache-0.4.3.tgz"
    },
    "registry-url": {
      "version": "3.1.0",
      "from": "registry-url@>=3.0.0 <4.0.0",
      "resolved": "https://registry.npmjs.org/registry-url/-/registry-url-3.1.0.tgz"
    },
    "repeat-element": {
      "version": "1.1.2",
      "from": "repeat-element@>=1.1.2 <2.0.0",
      "resolved": "https://registry.npmjs.org/repeat-element/-/repeat-element-1.1.2.tgz"
    },
    "repeat-string": {
      "version": "1.5.4",
      "from": "repeat-string@>=1.5.2 <2.0.0",
      "resolved": "https://registry.npmjs.org/repeat-string/-/repeat-string-1.5.4.tgz"
    },
    "repeating": {
      "version": "1.1.3",
      "from": "repeating@>=1.1.2 <2.0.0",
      "resolved": "https://registry.npmjs.org/repeating/-/repeating-1.1.3.tgz"
    },
    "require-uncached": {
      "version": "1.0.2",
      "from": "require-uncached@>=1.0.2 <2.0.0",
      "resolved": "https://registry.npmjs.org/require-uncached/-/require-uncached-1.0.2.tgz"
    },
    "resolve": {
      "version": "1.1.7",
      "from": "resolve@>=1.1.6 <2.0.0",
      "resolved": "https://registry.npmjs.org/resolve/-/resolve-1.1.7.tgz"
    },
    "resolve-from": {
      "version": "1.0.1",
      "from": "resolve-from@>=1.0.0 <2.0.0",
      "resolved": "https://registry.npmjs.org/resolve-from/-/resolve-from-1.0.1.tgz"
    },
    "restore-cursor": {
      "version": "1.0.1",
      "from": "restore-cursor@>=1.0.1 <2.0.0",
      "resolved": "https://registry.npmjs.org/restore-cursor/-/restore-cursor-1.0.1.tgz"
    },
    "right-align": {
      "version": "0.1.3",
      "from": "right-align@>=0.1.1 <0.2.0",
      "resolved": "https://registry.npmjs.org/right-align/-/right-align-0.1.3.tgz"
    },
    "rimraf": {
      "version": "2.5.2",
      "from": "rimraf@>=2.2.8 <3.0.0",
      "resolved": "https://registry.npmjs.org/rimraf/-/rimraf-2.5.2.tgz"
    },
    "run-async": {
      "version": "0.1.0",
      "from": "run-async@>=0.1.0 <0.2.0",
      "resolved": "https://registry.npmjs.org/run-async/-/run-async-0.1.0.tgz"
    },
    "rx-lite": {
      "version": "3.1.2",
      "from": "rx-lite@>=3.1.2 <4.0.0",
      "resolved": "https://registry.npmjs.org/rx-lite/-/rx-lite-3.1.2.tgz"
    },
    "semver": {
      "version": "5.1.0",
      "from": "semver@>=5.0.3 <6.0.0",
      "resolved": "https://registry.npmjs.org/semver/-/semver-5.1.0.tgz"
    },
    "semver-diff": {
      "version": "2.1.0",
      "from": "semver-diff@>=2.0.0 <3.0.0",
      "resolved": "https://registry.npmjs.org/semver-diff/-/semver-diff-2.1.0.tgz"
    },
    "shelljs": {
      "version": "0.6.0",
      "from": "shelljs@>=0.6.0 <0.7.0",
      "resolved": "https://registry.npmjs.org/shelljs/-/shelljs-0.6.0.tgz"
    },
    "shortid": {
      "version": "2.2.4",
      "from": "shortid@2.2.4",
      "resolved": "https://registry.npmjs.org/shortid/-/shortid-2.2.4.tgz"
    },
    "slice-ansi": {
      "version": "0.0.4",
      "from": "slice-ansi@0.0.4",
      "resolved": "https://registry.npmjs.org/slice-ansi/-/slice-ansi-0.0.4.tgz"
    },
    "slide": {
      "version": "1.1.6",
      "from": "slide@>=1.1.5 <2.0.0",
      "resolved": "https://registry.npmjs.org/slide/-/slide-1.1.6.tgz"
    },
    "source-map": {
      "version": "0.4.4",
      "from": "source-map@>=0.4.4 <0.5.0",
      "resolved": "https://registry.npmjs.org/source-map/-/source-map-0.4.4.tgz"
    },
    "source-map-support": {
      "version": "0.4.0",
      "from": "source-map-support@>=0.4.0 <0.5.0",
      "resolved": "https://registry.npmjs.org/source-map-support/-/source-map-support-0.4.0.tgz",
      "dependencies": {
        "source-map": {
          "version": "0.1.32",
          "from": "source-map@0.1.32",
          "resolved": "https://registry.npmjs.org/source-map/-/source-map-0.1.32.tgz"
        }
      }
    },
    "split": {
      "version": "0.3.3",
      "from": "split@>=0.3.0 <0.4.0",
      "resolved": "https://registry.npmjs.org/split/-/split-0.3.3.tgz"
    },
    "sprintf-js": {
      "version": "1.0.3",
      "from": "sprintf-js@>=1.0.2 <1.1.0",
      "resolved": "https://registry.npmjs.org/sprintf-js/-/sprintf-js-1.0.3.tgz"
    },
    "stream-combiner": {
      "version": "0.0.4",
      "from": "stream-combiner@>=0.0.4 <0.1.0",
      "resolved": "https://registry.npmjs.org/stream-combiner/-/stream-combiner-0.0.4.tgz"
    },
    "string_decoder": {
      "version": "0.10.31",
      "from": "string_decoder@>=0.10.0 <0.11.0",
      "resolved": "https://registry.npmjs.org/string_decoder/-/string_decoder-0.10.31.tgz"
    },
    "string-length": {
      "version": "1.0.1",
      "from": "string-length@>=1.0.0 <2.0.0",
      "resolved": "https://registry.npmjs.org/string-length/-/string-length-1.0.1.tgz"
    },
    "string-width": {
      "version": "1.0.1",
      "from": "string-width@>=1.0.1 <2.0.0",
      "resolved": "https://registry.npmjs.org/string-width/-/string-width-1.0.1.tgz"
    },
    "strip-ansi": {
      "version": "3.0.1",
      "from": "strip-ansi@>=3.0.0 <4.0.0",
      "resolved": "https://registry.npmjs.org/strip-ansi/-/strip-ansi-3.0.1.tgz"
    },
    "strip-json-comments": {
      "version": "1.0.4",
      "from": "strip-json-comments@>=1.0.1 <1.1.0",
      "resolved": "https://registry.npmjs.org/strip-json-comments/-/strip-json-comments-1.0.4.tgz"
    },
    "supports-color": {
      "version": "2.0.0",
      "from": "supports-color@>=2.0.0 <3.0.0",
      "resolved": "https://registry.npmjs.org/supports-color/-/supports-color-2.0.0.tgz"
    },
    "table": {
      "version": "3.7.8",
      "from": "table@>=3.7.8 <4.0.0",
      "resolved": "https://registry.npmjs.org/table/-/table-3.7.8.tgz",
      "dependencies": {
        "lodash": {
          "version": "4.11.0",
          "from": "lodash@>=4.0.0 <5.0.0",
          "resolved": "https://registry.npmjs.org/lodash/-/lodash-4.11.0.tgz"
        }
      }
    },
    "text-table": {
      "version": "0.2.0",
      "from": "text-table@>=0.2.0 <0.3.0",
      "resolved": "https://registry.npmjs.org/text-table/-/text-table-0.2.0.tgz"
    },
    "through": {
      "version": "2.3.8",
      "from": "through@>=2.3.6 <3.0.0",
      "resolved": "https://registry.npmjs.org/through/-/through-2.3.8.tgz"
    },
    "through2": {
      "version": "2.0.1",
      "from": "through2@>=2.0.1 <3.0.0",
      "resolved": "https://registry.npmjs.org/through2/-/through2-2.0.1.tgz",
      "dependencies": {
        "isarray": {
          "version": "1.0.0",
          "from": "isarray@>=1.0.0 <1.1.0",
          "resolved": "https://registry.npmjs.org/isarray/-/isarray-1.0.0.tgz"
        },
        "readable-stream": {
          "version": "2.0.6",
          "from": "readable-stream@>=2.0.0 <2.1.0",
          "resolved": "https://registry.npmjs.org/readable-stream/-/readable-stream-2.0.6.tgz"
        }
      }
    },
    "timed-out": {
      "version": "2.0.0",
      "from": "timed-out@>=2.0.0 <3.0.0",
      "resolved": "https://registry.npmjs.org/timed-out/-/timed-out-2.0.0.tgz"
    },
    "topo": {
      "version": "2.0.0",
      "from": "topo@>=2.0.0 <3.0.0"
    },
    "touch": {
      "version": "1.0.0",
      "from": "touch@1.0.0",
      "resolved": "https://registry.npmjs.org/touch/-/touch-1.0.0.tgz"
    },
    "traverse": {
      "version": "0.6.6",
      "from": "traverse@0.6.6",
      "resolved": "https://registry.npmjs.org/traverse/-/traverse-0.6.6.tgz"
    },
    "tryit": {
      "version": "1.0.2",
      "from": "tryit@>=1.0.1 <2.0.0",
      "resolved": "https://registry.npmjs.org/tryit/-/tryit-1.0.2.tgz"
    },
    "tv4": {
      "version": "1.2.7",
      "from": "tv4@>=1.2.7 <2.0.0",
      "resolved": "https://registry.npmjs.org/tv4/-/tv4-1.2.7.tgz"
    },
    "type-check": {
      "version": "0.3.2",
      "from": "type-check@>=0.3.2 <0.4.0",
      "resolved": "https://registry.npmjs.org/type-check/-/type-check-0.3.2.tgz"
    },
    "type-detect": {
      "version": "1.0.0",
      "from": "type-detect@>=1.0.0 <2.0.0",
      "resolved": "https://registry.npmjs.org/type-detect/-/type-detect-1.0.0.tgz"
    },
    "typedarray": {
      "version": "0.0.6",
      "from": "typedarray@>=0.0.5 <0.1.0",
      "resolved": "https://registry.npmjs.org/typedarray/-/typedarray-0.0.6.tgz"
    },
    "uglify-js": {
      "version": "2.6.2",
      "from": "uglify-js@>=2.6.0 <3.0.0",
      "resolved": "https://registry.npmjs.org/uglify-js/-/uglify-js-2.6.2.tgz",
      "dependencies": {
        "async": {
          "version": "0.2.10",
          "from": "async@>=0.2.6 <0.3.0",
          "resolved": "https://registry.npmjs.org/async/-/async-0.2.10.tgz"
        },
        "source-map": {
          "version": "0.5.3",
          "from": "source-map@>=0.5.1 <0.6.0",
          "resolved": "https://registry.npmjs.org/source-map/-/source-map-0.5.3.tgz"
        }
      }
    },
    "uglify-to-browserify": {
      "version": "1.0.2",
      "from": "uglify-to-browserify@>=1.0.0 <1.1.0",
      "resolved": "https://registry.npmjs.org/uglify-to-browserify/-/uglify-to-browserify-1.0.2.tgz"
    },
    "undefsafe": {
      "version": "0.0.3",
      "from": "undefsafe@0.0.3",
      "resolved": "https://registry.npmjs.org/undefsafe/-/undefsafe-0.0.3.tgz"
    },
    "unreachable-branch-transform": {
      "version": "0.5.1",
      "from": "unreachable-branch-transform@>=0.5.0 <0.6.0",
      "resolved": "https://registry.npmjs.org/unreachable-branch-transform/-/unreachable-branch-transform-0.5.1.tgz"
    },
    "update-notifier": {
      "version": "0.5.0",
      "from": "update-notifier@0.5.0",
      "resolved": "https://registry.npmjs.org/update-notifier/-/update-notifier-0.5.0.tgz"
    },
    "user-home": {
      "version": "2.0.0",
      "from": "user-home@>=2.0.0 <3.0.0",
      "resolved": "https://registry.npmjs.org/user-home/-/user-home-2.0.0.tgz"
    },
    "util-deprecate": {
      "version": "1.0.2",
      "from": "util-deprecate@>=1.0.1 <1.1.0",
      "resolved": "https://registry.npmjs.org/util-deprecate/-/util-deprecate-1.0.2.tgz"
    },
    "uuid": {
      "version": "2.0.2",
      "from": "uuid@>=2.0.1 <3.0.0",
      "resolved": "https://registry.npmjs.org/uuid/-/uuid-2.0.2.tgz"
    },
    "vision": {
      "version": "4.1.0",
      "from": "vision@>=4.0.1 <5.0.0",
      "resolved": "https://registry.npmjs.org/vision/-/vision-4.1.0.tgz",
      "dependencies": {
        "boom": {
          "version": "3.1.2",
          "from": "boom@>=3.0.0 <4.0.0"
        }
      }
    },
    "window-size": {
      "version": "0.1.0",
      "from": "window-size@0.1.0",
      "resolved": "https://registry.npmjs.org/window-size/-/window-size-0.1.0.tgz"
    },
    "wordwrap": {
      "version": "0.0.3",
      "from": "wordwrap@>=0.0.2 <0.1.0",
      "resolved": "https://registry.npmjs.org/wordwrap/-/wordwrap-0.0.3.tgz"
    },
    "wrappy": {
      "version": "1.0.1",
      "from": "wrappy@>=1.0.0 <2.0.0",
      "resolved": "https://registry.npmjs.org/wrappy/-/wrappy-1.0.1.tgz"
    },
    "wreck": {
      "version": "7.1.0",
      "from": "wreck@>=7.1.0 <8.0.0",
      "resolved": "https://registry.npmjs.org/wreck/-/wreck-7.1.0.tgz",
      "dependencies": {
        "boom": {
          "version": "3.1.2",
          "from": "boom@>=3.0.0 <4.0.0"
        }
      }
    },
    "write": {
      "version": "0.2.1",
      "from": "write@>=0.2.1 <0.3.0",
      "resolved": "https://registry.npmjs.org/write/-/write-0.2.1.tgz"
    },
    "write-file-atomic": {
      "version": "1.1.4",
      "from": "write-file-atomic@>=1.1.2 <2.0.0",
      "resolved": "https://registry.npmjs.org/write-file-atomic/-/write-file-atomic-1.1.4.tgz"
    },
    "xdg-basedir": {
      "version": "2.0.0",
      "from": "xdg-basedir@>=2.0.0 <3.0.0",
      "resolved": "https://registry.npmjs.org/xdg-basedir/-/xdg-basedir-2.0.0.tgz"
    },
    "xregexp": {
      "version": "3.1.0",
      "from": "xregexp@>=3.0.0 <4.0.0",
      "resolved": "https://registry.npmjs.org/xregexp/-/xregexp-3.1.0.tgz"
    },
    "xtend": {
      "version": "4.0.1",
      "from": "xtend@>=4.0.0 <4.1.0-0",
      "resolved": "https://registry.npmjs.org/xtend/-/xtend-4.0.1.tgz"
    },
    "yargs": {
      "version": "3.10.0",
      "from": "yargs@>=3.10.0 <3.11.0",
      "resolved": "https://registry.npmjs.org/yargs/-/yargs-3.10.0.tgz"
    }
  }
}
